data/scope after amp.csv

#Digilent WaveForms Oscilloscope Acquisition
#Device Name: Discovery2
#Serial Number: SN:210321B81678
#Date Time: 2025-11-07 16:48:52.270
#Sample rate: 800000Hz
#Samples: 8192
#Trigger: Source: Channel 1 Type: Edge Condition: Rising Level: 0 V Hyst.: Auto HoldOff: 0 s
#Channel 1: Range: 500 mV/div Offset: 0 V Sample Mode: Average
#Wavegen Channel 1: Enabled
#Mode: Simple
#Type: Sine
#Frequency: 2 kHz
#Period: 500 us
#Amplitude: 50 mV
#Offset: 0 V
#Symmetry: 50 %
#Phase: 0 °
#Power Supplies: ON
#Positive Supply: ON
#Voltage: 5 V
#Negative Supply: ON
#Voltage: -5 V

#2,4kHz
#raw
#
Time (s),Channel 1 (V)
-0.005118815789473685,0.1375546888125398
-0.005117565789473684,0.1309197914796777
-0.005116315789473684,0.1232896595468829
-0.005115065789473685,0.115659527614095
-0.005113815789473684,0.1073659059480174
-0.005112565789473685,0.09940402914858291
-0.005111315789473684,0.09376436641565015
-0.005110065789473685,0.08547074474957633
-0.005108815789473684,0.07883584741671049
-0.005107565789473684,0.07054222575062974
-0.005106315789473685,0.06357558355112772
-0.005105065789473684,0.05627719648497553
-0.005103815789473685,0.04765182995225875
-0.005102565789473684,0.04134867748603979
-0.005101315789473685,0.03172807635338978
-0.005100065789473684,0.0240979444205984
-0.005098815789473685,0.01679955735445344
-0.005097565789473684,0.01016466002158805
-0.005096315789473684,0.001871038355506232
-0.005095065789473685,-0.007417817910496445
-0.005093815789473684,-0.01504794984329175
-0.005092565789473685,-0.02367331637600852
-0.005091315789473684,-0.03030821370887059
-0.005090065789473685,-0.03926532510823032
-0.005088815789473684,-0.04656371217438267
-0.005087565789473685,-0.05452558897381353
-0.005086315789473684,-0.06182397603996544
-0.005085065789473684,-0.06945410797276029
-0.005083815789473685,-0.0770842399055482
-0.005082565789473684,-0.08504611670498269
-0.005081315789473685,-0.09234450377113097
-0.005080065789473684,-0.09931114597063614
-0.005078815789473685,-0.1082682573699959
-0.005077565789473684,-0.1152348995695051
-0.005076315789473685,-0.122865031502293
-0.005075065789473684,-0.130826908301731
-0.005073815789473684,-0.1381252953678824
-0.005072565789473685,-0.1450919375673844
-0.005071315789473684,-0.153385559233462
-0.005070065789473685,-0.1606839462996103
-0.005068815789473684,-0.169309312832331
-0.005067565789473685,-0.17594421016519
-0.005066315789473684,-0.1832425972313414
-0.005065065789473684,-0.1908727291641365
-0.005063815789473684,-0.1991663508302103
-0.005062565789473684,-0.2064647378963618
-0.005061315789473685,-0.2134313800958638
-0.005060065789473684,-0.220398022295369
-0.005058815789473685,-0.2280281542281603
-0.005057565789473684,-0.2343313066943793
-0.005056315789473685,-0.2396392245606666
-0.005055065789473684,-0.2476011013601035
-0.005053815789473684,-0.2552312332928975
-0.005052565789473685,-0.2612026408924707
-0.005051315789473684,-0.2691645176919079
-0.005050065789473685,-0.2751359252914811
-0.005048815789473684,-0.2807755880244138
-0.005047565789473685,-0.2874104853572729
-0.005046315789473684,-0.2937136378234949
-0.005045065789473685,-0.3006802800229968
-0.005043815789473684,-0.3053247081560035
-0.005042565789473684,-0.310964370888939
-0.005041315789473685,-0.3169357784885121
-0.005040065789473684,-0.3232389309547311
-0.005038815789473685,-0.3302055731542363
-0.005037565789473684,-0.3351817461538828
-0.005036315789473685,-0.3401579191535271
-0.005035065789473684,-0.3457975818864621
-0.005033815789473685,-0.3517689894860353
-0.005032565789473684,-0.3570769073523277
-0.005031315789473684,-0.3627165700852623
-0.005030065789473685,-0.3666975084849777
-0.005028815789473684,-0.3706784468846949
-0.005027565789473685,-0.3756546198843415
-0.005026315789473684,-0.3812942826172742
-0.005025065789473685,-0.3859387107502756
-0.005023815789473684,-0.3895879042833518
-0.005022565789473684,-0.3929053529497845
-0.005021315789473684,-0.396554546482857
-0.005020065789473684,-0.4015307194825048
-0.005018815789473685,-0.4045164232822915
-0.005017565789473684,-0.4075021270820794
-0.005016315789473685,-0.4121465552150829
-0.005015065789473684,-0.4141370244149415
-0.005013815789473685,-0.417454473081371
-0.005012565789473684,-0.4201084320145174
-0.005011315789473684,-0.422762390947663
-0.005010065789473685,-0.4247528601475208
-0.005008815789473684,-0.4280703088139531
-0.005007565789473685,-0.4310560126137398
-0.005006315789473684,-0.4337099715468846
-0.005005065789473685,-0.4357004407467432
-0.005003815789473684,-0.4370274202133156
-0.005002565789473685,-0.4393496342798163
-0.005001315789473684,-0.4403448688797467
-0.005000065789473684,-0.4443258072794642
-0.004998815789473685,-0.4449892970127501
-0.004997565789473684,-0.4453210418793932
-0.004996315789473685,-0.4459845316126794
-0.004995065789473684,-0.4466480213459657
-0.004993815789473685,-0.4489702354124663
-0.004992565789473684,-0.4506289597456828
-0.004991315789473685,-0.449965470012397
-0.004990065789473684,-0.4512924494789691
-0.004988815789473684,-0.4516241943456125
-0.004987565789473685,-0.4522876840788984
-0.004986315789473684,-0.4529511738121846
-0.004985065789473685,-0.4522876840788984
-0.004983815789473684,-0.4522876840788984
-0.004982565789473685,-0.4529511738121843
-0.004981315789473684,-0.4529511738121846
-0.004980065789473684,-0.4522876840788984
-0.004978815789473684,-0.4522876840788984
-0.004977565789473684,-0.4516241943456117
-0.004976315789473685,-0.4506289597456828
-0.004975065789473684,-0.450960704612326
-0.004973815789473685,-0.4496337251457536
-0.004972565789473684,-0.4486384905458242
-0.004971315789473685,-0.4469797662126095
-0.004970065789473684,-0.4463162764793225
-0.004968815789473684,-0.444989297012749
-0.004967565789473685,-0.4426670829462484
-0.004966315789473684,-0.4403448688797459
-0.004965065789473685,-0.4386861445465312
-0.004963815789473684,-0.435036951013457
-0.004962565789473685,-0.4343734612801708
-0.004961315789473684,-0.4320512472136691
-0.004960065789473685,-0.4290655434138825
-0.004958815789473684,-0.4270750742140225
-0.004957565789473684,-0.4250846050141624
-0.004956315789473685,-0.4217671563477329
-0.004955065789473684,-0.4184497076813018
-0.004953815789473685,-0.415795748748157
-0.004952565789473684,-0.4114830654817966
-0.004951315789473685,-0.408829106548653
-0.004950065789473684,-0.4055116578822208
-0.004948815789473685,-0.4002037400159335
-0.004947565789473684,-0.3978815259494294
-0.004946315789473684,-0.394232332416353
-0.004945065789473685,-0.3892561594167087
-0.004943815789473684,-0.3859387107502777
-0.004942565789473685,-0.3816260274839173
-0.004941315789473684,-0.3776450890842001
-0.004940065789473685,-0.3723371712179128
-0.004938815789473684,-0.367692743084907
-0.004937565789473685,-0.3633800598185485
-0.004936315789473684,-0.3587356316855432
-0.004935065789473684,-0.3521007343526788
-0.004933815789473685,-0.3471245613530345
-0.004932565789473684,-0.342148388353388
-0.004931315789473685,-0.3368404704870983
-0.004930065789473684,-0.3312008077541655
-0.004928815789473685,-0.3252294001545925
-0.004927565789473684,-0.3189262476883707
-0.004926315789473684,-0.3136183298220782
-0.004925065789473685,-0.3073151773558621
-0.004923815789473684,-0.3003485351563546
-0.004922565789473685,-0.2950406172900673
-0.004921315789473684,-0.2890692096904914
-0.004920065789473685,-0.2830978020909156
-0.004918815789473684,-0.2764629047580535
-0.004917565789473685,-0.2704914971584803
-0.004916315789473684,-0.2631931100923293
-0.004915065789473684,-0.2565582127594641
-0.004913815789473685,-0.2495915705599621
-0.004912565789473684,-0.2429566732270967
-0.004911315789473685,-0.2356582861609517
-0.004910065789473684,-0.2290233888280896
-0.004908815789473685,-0.2217250017619447
-0.004907565789473684,-0.2144266146957931
-0.004906315789473685,-0.2074599724962911
-0.004905065789473684,-0.201488564896712
-0.004903815789473684,-0.1938584329639176
-0.004902565789473685,-0.1872235356310586
-0.004901315789473684,-0.1799251485649103
-0.004900065789473685,-0.1722950166321189
-0.004898815789473684,-0.1643331398326845
-0.004897565789473685,-0.1550442835666818
-0.004896315789473684,-0.1484093862338155
-0.004895065789473685,-0.1414427440343135
-0.004893815789473684,-0.1338126121015189
-0.004892565789473684,-0.1271777147686531
-0.004891315789473685,-0.1188840931025793
-0.004890065789473684,-0.1102587265698586
-0.004888815789473685,-0.1022968497704241
-0.004887565789473684,-0.09566195243756201
-0.004886315789473685,-0.08637309617155933
-0.004885065789473684,-0.07940645397204993
-0.004883815789473684,-0.07044934257268251
-0.004882565789473685,-0.06248746577325165
-0.004881315789473684,-0.05353035437388406
-0.004880065789473685,-0.04523673270781026
-0.004878815789473684,-0.03694311104173266
-0.004877565789473685,-0.02765425477572576
-0.004876315789473684,-0.02101935744286369
-0.004875065789473685,-0.01372097037671873
-0.004873815789473684,-0.003768624377422305
-0.004872565789473684,0.003198017822086642
-0.004871315789473685,0.01149163948816046
-0.004870065789473684,0.02011700602088508
-0.004868815789473685,0.02874237255360185
-0.004867565789473684,0.03604075961975013
-0.004866315789473685,0.04566136075239575
-0.004865065789473684,0.05395498241847772
-0.004863815789473685,0.06158511435126564
-0.004862565789473684,0.07021048088398979
-0.004861315789473684,0.07949933715000032
-0.004860065789473685,0.08746121394943118
-0.004858815789473684,0.09608658048215188
-0.004857565789473685,0.1030532226816571
-0.004856315789473684,0.1110150994810915
-0.004855065789473685,0.1189769762805224
-0.004853815789473684,0.1276023428132467
-0.004852565789473685,0.1358959644793205
-0.004851315789473684,0.1451848207453312
-0.004850065789473684,0.1518197180781971
-0.004848815789473685,0.1601133397442709
-0.004847565789473684,0.1677434716770622
-0.004846315789473685,0.1757053484764967
-0.004845065789473684,0.1836672252759312
-0.004843815789473685,0.192292591808648
-0.004842565789473684,0.1999227237414433
-0.004841315789473684,0.2075528556742385
-0.004840065789473685,0.2158464773403123
-0.004838815789473684,0.2241400990063933
-0.004837565789473685,0.2317702309391813
-0.004836315789473684,0.2384051282720433
-0.004835065789473685,0.2466987499381209
-0.004833815789473684,0.2546606267375554
-0.004832565789473685,0.2619590138037003
-0.004831315789473684,0.2695891457364951
-0.004830065789473684,0.2765557879360038
-0.004828815789473685,0.2845176647354347
-0.004827565789473684,0.2918160518015863
-0.004826315789473685,0.2991144388677313
-0.004825065789473684,0.3060810810672365
-0.004823815789473685,0.3137112130000244
-0.004822565789473684,0.3203461103328899
-0.004821315789473685,0.3276444973990348
-0.004820065789473684,0.3349428844651865
-0.004818815789473684,0.3409142920647653
-0.004817565789473685,0.3475491893976244
-0.004816315789473684,0.3545158315971296
-0.004815065789473685,0.3608189840633486
-0.004813815789473684,0.3661269019296382
-0.004812565789473685,0.374752268462355
-0.004811315789473684,0.3797284414620055
-0.004810065789473685,0.3870268285281504
-0.004808815789473684,0.3923347463944434
-0.004807565789473684,0.3986378988606646
-0.004806315789473685,0.4036140718603089
-0.004805065789473684,0.410248969193171
-0.004803815789473685,0.4152251421928175
-0.004802565789473684,0.4205330600591072
-0.004801315789473685,0.4271679573919663
-0.004800065789473684,0.4321441303916158
-0.004798815789473684,0.4361250687913354
-0.004797565789473685,0.4414329866576228
-0.004796315789473684,0.4460774147906281
-0.004795065789473685,0.4503900980569865
-0.004793815789473684,0.4537075467234176
-0.004792565789473685,0.458351974856421
-0.004791315789473684,0.4629964029894245
-0.004790065789473685,0.4669773413891399
-0.004788815789473684,0.4706265349222158
-0.004787565789473684,0.4736122387220055
-0.004786315789473685,0.4772614322550779
-0.004785065789473684,0.4799153911882246
-0.004783815789473685,0.48389632958794
-0.004782565789473684,0.4855550539211555
-0.004781315789473685,0.489204247454228
-0.004780065789473684,0.4928534409873038
-0.004778815789473685,0.4951756550538045
-0.004777565789473684,0.4961708896537348
-0.004776315789473684,0.4981613588535942
-0.004775065789473685,0.499820083186809
-0.004773815789473684,0.5011470626533814
-0.004772565789473685,0.5041327664531693
-0.004771315789473684,0.5064549805196711
-0.004770065789473685,0.5074502151195999
-0.004768815789473684,0.5081137048528865
-0.004767565789473685,0.5097724291861013
-0.004766315789473684,0.5114311535193176
-0.004765065789473684,0.5107676637860318
-0.004763815789473685,0.5117628983859607
-0.004762565789473684,0.5130898778525331
-0.004761315789473685,0.5124263881192469
-0.004760065789473684,0.5134216227191762
-0.004758815789473685,0.5140851124524621
-0.004757565789473684,0.5140851124524625
-0.004756315789473684,0.5130898778525328
-0.004755065789473685,0.5124263881192469
-0.004753815789473684,0.5110994086526748
-0.004752565789473685,0.5117628983859607
-0.004751315789473684,0.5101041740527452
-0.004750065789473685,0.5087771945861728
-0.004748815789473684,0.5071184702529572
-0.004747565789473685,0.5051280010530995
-0.004746315789473684,0.5038010215865262
-0.004745065789473684,0.5021422972533103
-0.004743815789473685,0.5011470626533814
-0.004742565789473684,0.4974978691203064
-0.004741315789473685,0.4955073999204486
-0.004740065789473684,0.4918582063873745
-0.004738815789473685,0.4911947166540885
-0.004737565789473684,0.4865502885210848
-0.004736315789473685,0.4842280744545842
-0.004735065789473684,0.4809106257881521
-0.004733815789473684,0.4765979425217905
-0.004732565789473685,0.4739439835886469
-0.004731315789473684,0.470958279788859
-0.004730065789473685,0.4669773413891417
-0.004728815789473684,0.4629964029894245
-0.004727565789473685,0.459347209456352
-0.004726315789473684,0.45503452618999
-0.004725065789473685,0.4513853326569175
-0.004723815789473684,0.4474043942571986
-0.004722565789473684,0.442759966124193
-0.004721315789473685,0.4381155379911917
-0.004720065789473684,0.4347980893247607
-0.004718815789473685,0.4284949368585417
-0.004717565789473684,0.4238505087255383
-0.004716315789473685,0.4205330600591087
-0.004715065789473684,0.4148933973261744
-0.004713815789473684,0.4112442037930973
-0.004712565789473684,0.4046093064602382
-0.004711315789473684,0.4002966231938749
-0.004710065789473685,0.3936617258610158
-0.004708815789473684,0.3883538079947261
-0.004707565789473685,0.3820506555285072
-0.004706315789473684,0.3760792479289313
-0.004705065789473685,0.3711030749292871
-0.004703815789473684,0.365463412196352
-0.004702565789473684,0.3584967699968447
-0.004701315789473685,0.3538523418638434
-0.004700065789473684,0.3462222099310496
-0.004698815789473685,0.3409142920647623
-0.004697565789473684,0.3342793947319003
-0.004696315789473685,0.3266492627991123
-0.004695065789473684,0.3200143654662468
-0.004693815789473685,0.3133794681333877
-0.004692565789473684,0.3057493362005934
-0.004691315789473684,0.3007731632009432
-0.004690065789473685,0.2928112864015123
-0.004688815789473684,0.2855128993353641
-0.004687565789473685,0.2762240430693572
-0.004686315789473684,0.2709161252030675
-0.004685065789473685,0.2639494830035655
-0.004683815789473684,0.256651095937414
-0.004682565789473685,0.249684453737912
-0.004681315789473684,0.2413908320718313
-0.004680065789473684,0.2344241898723222
-0.004678815789473685,0.2257988233396054
-0.004677565789473684,0.218168691406814
-0.004676315789473685,0.2095433248740933
-0.004675065789473684,0.2012497032080157
-0.004673815789473685,0.1929560815419419
-0.004672565789473684,0.1876481636756485
-0.004671315789473684,0.177364072809708
-0.004670065789473684,0.1680752165437054
-0.004668815789473684,0.159781594877624
-0.004667565789473685,0.1514879732115502
-0.004666315789473684,0.1431943515454726
-0.004665065789473685,0.1352324747460381
-0.004663815789473684,0.1262753633466743
-0.004662565789473685,0.1173182519473146
-0.004661315789473684,0.109356375147876
-0.004660065789473684,0.1007310086151516
-0.004658815789473685,0.09243738694907774
-0.004657565789473684,0.08348027554971062
-0.004656315789473685,0.07618188848356566
-0.004655065789473684,0.06689303221755875
-0.004653815789473685,0.05793592081819497
-0.004652565789473684,0.04997404401876047
-0.004651315789473685,0.04068518775275781
-0.004650065789473684,0.0327233109533191
-0.004648815789473684,0.02409794442059388
-0.004647565789473685,0.01414559842130529
-0.004646315789473684,0.005520231888584596
-0.004645065789473685,-0.00244164491084989
-0.004643815789473684,-0.01040352171028438
-0.004642565789473685,-0.0193606331096441
-0.004641315789473684,-0.02765425477572576
-0.004640065789473685,-0.03661136617508549
-0.004638815789473684,-0.04556847757445336
-0.004637565789473684,-0.05452558897382152
-0.004636315789473685,-0.06414619010646716
-0.004635065789473684,-0.07210806690590166
-0.004633815789473685,-0.08006994370533614
-0.004632565789473684,-0.08902705510469994
-0.004631315789473685,-0.09864765623734557
-0.004630065789473684,-0.105282553570212
-0.004628815789473684,-0.1135761752362934
-0.004627565789473684,-0.1218697969023672
-0.004626315789473684,-0.1308269083017349
-0.004625065789473685,-0.1394522748344517
-0.004623815789473684,-0.1474141516338862
-0.004622565789473685,-0.1553760284333207
-0.004621315789473684,-0.1636696500993982
-0.004620065789473685,-0.172295016632115
-0.004618815789473684,-0.1809203831648396
-0.004617565789473684,-0.1892140048309202
-0.004616315789473685,-0.1958489021637793
-0.004615065789473684,-0.2048060135631467
-0.004613815789473685,-0.2127678903625776
-0.004612565789473684,-0.2223884914952276
-0.004611315789473685,-0.2283598990948034
-0.004610065789473684,-0.2373170104941673
-0.004608815789473685,-0.2449471424269552
-0.004607565789473684,-0.2522455294931069
-0.004606315789473684,-0.2615343857591168
-0.004605065789473685,-0.2681692830919759
-0.004603815789473684,-0.274804180424838
-0.004602565789473685,-0.2814390777577001
-0.004601315789473684,-0.2890692096904914
-0.004600065789473685,-0.2963675967566364
-0.004598815789473684,-0.3030024940895018
-0.004597565789473685,-0.3103008811556467
-0.004596315789473684,-0.3175992682217983
-0.004595065789473684,-0.3235706758213769
-0.004593815789473685,-0.32954208342095
-0.004592565789473684,-0.3361769807538121
-0.004591315789473685,-0.3424801332200311
-0.004590065789473684,-0.3487832856862501
-0.004588815789473685,-0.3550864381524662
-0.004587565789473684,-0.3610578457520449
-0.004586315789473685,-0.367360998218261
-0.004585065789473684,-0.3726689160845535
-0.004583815789473684,-0.3789720685507748
-0.004582565789473685,-0.3839482415504191
-0.004581315789473684,-0.3895879042833518
-0.004580065789473685,-0.3952275670162846
-0.004578815789473684,-0.4018624643491466
-0.004577565789473685,-0.4068386373487909
-0.004576315789473684,-0.4121465552150829
-0.004575065789473684,-0.4181179628146606
-0.004573815789473685,-0.4220989012143759
-0.004572565789473684,-0.427738563947311
-0.004571315789473685,-0.4327147369469553
-0.004570065789473684,-0.4353686958801001
-0.004568815789473685,-0.4406766137463898
-0.004567565789473684,-0.4453210418793932
-0.004566315789473685,-0.4496337251457516
-0.004565065789473684,-0.4539464084121139
-0.004563815789473684,-0.4569321122119038
-0.004562565789473685,-0.4612447954782622
-0.004561315789473684,-0.4648939890113386
-0.004560065789473685,-0.4698701620109829
-0.004558815789473684,-0.4725241209441277
-0.004557565789473685,-0.4745145901439854
-0.004556315789473684,-0.4775002939437742
-0.004555065789473685,-0.4818129772101327
-0.004553815789473684,-0.4841351912766363
-0.004552565789473684,-0.4854621707432096
-0.004551315789473685,-0.4874526399430674
-0.004550065789473684,-0.4904383437428553
-0.004548815789473685,-0.4930923026760001
-0.004547565789473684,-0.4954145167425019
-0.004546315789473685,-0.4970732410757166
-0.004545065789473684,-0.4977367308090036
-0.004543815789473685,-0.4997272000088613
-0.004542565789473684,-0.5017176692087209
-0.004541315789473684,-0.5033763935419374
-0.004540065789473685,-0.5056986076084381
-0.004538815789473684,-0.5063620973417243
