data/scope.csv

#Digilent WaveForms Oscilloscope Acquisition
#Device Name: Discovery2
#Serial Number: SN:210321B81678
#Date Time: 2025-11-07 16:43:52.742
#Sample rate: 800000Hz
#Samples: 8192
#Trigger: Source: Channel 1 Type: Edge Condition: Rising Level: 0 V Hyst.: Auto HoldOff: 0 s
#Channel 1: Range: 50 mV/div Offset: 0 V Sample Mode: Average
#Power Supplies: ON
#Positive Supply: ON
#Voltage: 5 V
#Negative Supply: ON
#Voltage: -5 V

#2,4kHz
#raw
#
Time (s),Channel 1 (V)
-0.005119250000000001,0.04897880941883116
-0.005118,0.04831531968554496
-0.00511675,0.04831531968554496
-0.0051155,0.04831531968554496
-0.00511425,0.04765182995225875
-0.005113,0.04732008508561565
-0.00511175,0.04599310561904324
-0.0051105,0.04632485048568619
-0.00510925,0.04665659535232944
-0.005108,0.04566136075240013
-0.00510675,0.04566136075240013
-0.0051055,0.04367089155254152
-0.00510425,0.04367089155254152
-0.005103,0.0426756569526122
-0.00510175,0.0426756569526122
-0.0051005,0.04234391208596909
-0.00509925,0.04134867748604024
-0.005098,0.04134867748603979
-0.00509675,0.04068518775275282
-0.0050955,0.03902646341953805
-0.00509425,0.0390264634195379
-0.005093,0.03869471855289495
-0.00509175,0.03803122881960876
-0.0050905,0.03670424935303693
-0.00508925,0.03604075961975013
-0.005088000000000001,0.03637250448639308
-0.00508675,0.03537726988646392
-0.0050855,0.03537726988646332
-0.00508425,0.03405029041989151
-0.005083,0.03239156608667598
-0.00508175,0.0327233109533191
-0.0050805,0.03139633148674668
-0.00507925,0.03139633148674668
-0.005078,0.02907411742024495
-0.005076750000000001,0.028742372553602
-0.0050755,0.02874237255360185
-0.00507425,0.02841062768695844
-0.005073,0.02774713795367254
-0.00507175,0.02708364822038633
-0.0050705,0.02608841362045702
-0.00506925,0.02476143415388461
-0.005068,0.0240979444205987
-0.00506675,0.02376619955395529
-0.0050655,0.02343445468731128
-0.00506425,0.02144398548745357
-0.005063,0.02210747522073917
-0.00506175,0.02078049575416736
-0.0050605,0.02011700602088115
-0.00505925,0.01912177142095185
-0.005058,0.01812653682102253
-0.00505675,0.01746304708773663
-0.0050555,0.01580432275452081
-0.00505425,0.01646781248780687
-0.005053,0.01613606762116391
-0.00505175,0.01514083302123369
-0.0050505,0.01315036382137598
-0.00504925,0.01414559842130529
-0.005048,0.01182338435480462
-0.00504675,0.01182338435480356
-0.005045500000000001,0.01115989462151766
-0.00504425,0.009832915154944943
-0.005043,0.008837680555015331
-0.00504175,0.008174190821729425
-0.0050405,0.008174190821729425
-0.00503925,0.007178956221800114
-0.005038,0.006183721621870804
-0.00503675,0.005851976755227851
-0.0050355,0.004856742155298389
-0.005034250000000001,0.004193252422012484
-0.005033,0.003198017822082871
-0.00503175,0.002202783222153258
-0.0050305,0.001539293488867353
-0.00502925,0.001207548622224249
-0.005028,0.0002123140222949384
-0.00502675,-0.0004511757109912688
-0.0050255,-0.0007829205776342216
-0.00502425,-0.002773389777492994
-0.005023,-0.002773389777492994
-0.00502175,-0.002773389777492994
-0.0050205,-0.003768624377422758
-0.00501925,-0.004763858977351616
-0.005018,-0.005759093577280927
-0.00501675,-0.005427348710637823
-0.0050155,-0.006754328177210237
-0.00501425,-0.00708607304385319
-0.005013,-0.008413052510425756
-0.00501175,-0.00841305251042636
-0.0050105,-0.00974003197699817
-0.00500925,-0.01007177684364173
-0.005008,-0.01106701144357058
-0.00500675,-0.01073526657692748
-0.0050055,-0.0120622460434999
-0.00500425,-0.01305748064342921
-0.005003000000000001,-0.01305748064342921
-0.00500175,-0.01471620497664472
-0.0050005,-0.01438446011000207
-0.00499925,-0.01537969470993093
-0.004998,-0.01604318444321714
-0.00499675,-0.01737016390978955
-0.0049955,-0.01803365364307576
-0.00499425,-0.01770190877643281
-0.004993,-0.01803365364307576
-0.004991750000000001,-0.01902888824300462
-0.0049905,-0.01936063310964817
-0.00498925,-0.02101935744286369
-0.004988,-0.02101935744286369
-0.00498675,-0.022014592042793
-0.0049855,-0.02234633690943611
-0.00498425,-0.022014592042793
-0.004983,-0.02300982664272186
-0.00498175,-0.02400506124265163
-0.0049805,-0.02433680610929518
-0.00497925,-0.02533204070922404
-0.004978,-0.02533204070922449
-0.00497675,-0.02632727530915335
-0.0049755,-0.02599553044251025
-0.00497425,-0.02699076504243956
-0.004973,-0.02765425477572576
-0.00497175,-0.02798599964236872
-0.0049705,-0.02831774450901197
-0.00496925,-0.02931297910894128
-0.004968,-0.02931297910894128
-0.00496675,-0.02964472397558439
-0.0049655,-0.02964472397558439
-0.00496425,-0.0313034483087999
-0.004963,-0.03229868290872921
-0.00496175,-0.03196693804208611
-0.0049605,-0.03263042777537203
-0.00495925,-0.03296217264201542
-0.004958,-0.03296217264201572
-0.00495675,-0.03362566237530162
-0.0049555,-0.03395740724194474
-0.00495425,-0.03462089697523094
-0.004953,-0.03462089697523094
-0.00495175,-0.0349526418418739
-0.0049505,-0.03561613157516025
-0.004949250000000001,-0.03661136617508911
-0.004948,-0.03627962130844646
-0.00494675,-0.03594787644180397
-0.0049455,-0.03727485590837577
-0.00494425,-0.03727485590837577
-0.004943,-0.03727485590837577
-0.00494175,-0.03827009050830509
-0.0049405,-0.03760660077501917
-0.00493925,-0.03793834564166197
-0.004938000000000001,-0.03827009050830493
-0.00493675,-0.03860183537494818
-0.0049355,-0.03860183537494864
-0.00493425,-0.0395970699748775
-0.004933,-0.0395970699748775
-0.00493175,-0.0395970699748775
-0.0049305,-0.0392653251082344
-0.00492925,-0.03959706997487734
-0.004928,-0.03893358024159128
-0.00492675,-0.04059230457480666
-0.0049255,-0.0402605597081637
-0.00492425,-0.04059230457480696
-0.004923,-0.04092404944144991
-0.00492175,-0.0402605597081637
-0.0049205,-0.04125579430809301
-0.00491925,-0.04059230457480681
-0.004918,-0.04026055970816385
-0.00491675,-0.04158753917473612
-0.0049155,-0.04092404944145006
-0.00491425,-0.04125579430809301
-0.004913,-0.04059230457480711
-0.00491175,-0.04125579430809301
-0.0049105,-0.04125579430809301
-0.00490925,-0.04092404944145006
-0.004908,-0.04158753917473612
-0.004906750000000001,-0.04158753917473612
-0.0049055,-0.04191928404137922
-0.00490425,-0.04125579430809301
-0.004903,-0.04125579430809301
-0.00490175,-0.04158753917473612
-0.0049005,-0.04092404944144991
-0.00489925,-0.04092404944144991
-0.004898,-0.04059230457480696
-0.00489675,-0.04125579430809301
-0.004895500000000001,-0.04026055970816415
-0.00489425,-0.04059230457480681
-0.004893,-0.04026055970816385
-0.00489175,-0.04059230457480681
-0.0048905,-0.0395970699748775
-0.00488925,-0.0399288148415206
-0.004888,-0.0402605597081637
-0.00488675,-0.0395970699748778
-0.0048855,-0.03893358024159128
-0.00488425,-0.03893358024159128
-0.004883,-0.03893358024159128
-0.00488175,-0.03860183537494834
-0.0048805,-0.03893358024159128
-0.00487925,-0.03793834564166197
-0.004878,-0.03760660077501887
-0.00487675,-0.03793834564166197
-0.0048755,-0.03793834564166197
-0.00487425,-0.03727485590837577
-0.004873,-0.03661136617508971
-0.00487175,-0.03694311104173266
-0.0048705,-0.03627962130844601
-0.00486925,-0.03528438670851715
-0.004868,-0.03627962130844646
-0.00486675,-0.03495264184187465
-0.0048655,-0.03462089697523094
-0.004864250000000001,-0.0349526418418739
-0.004863,-0.03329391750865852
-0.00486175,-0.03329391750865852
-0.0048605,-0.03329391750865852
-0.00485925,-0.03428915210858784
-0.004858,-0.03196693804208611
-0.00485675,-0.0313034483087999
-0.0048555,-0.03196693804208581
-0.00485425,-0.03163519317544301
-0.004853000000000001,-0.03063995857551415
-0.00485175,-0.0313034483087999
-0.0048505,-0.03030821370887014
-0.00484925,-0.02931297910894128
-0.004848,-0.02964472397558439
-0.00484675,-0.02864948937565508
-0.0048455,-0.02864948937565508
-0.00484425,-0.02831774450901212
-0.004843,-0.02732250990908266
-0.00484175,-0.0266590201757963
-0.0048405,-0.02632727530915335
-0.00483925,-0.02533204070922419
-0.004838,-0.02566378557586714
-0.00483675,-0.02433680610929473
-0.0048355,-0.02433680610929473
-0.00483425,-0.02466855097593783
-0.004833,-0.02300982664272307
-0.00483175,-0.02267808177607921
-0.0048305,-0.02267808177607876
-0.00482925,-0.0216828471761499
-0.004828,-0.02168284717614899
-0.00482675,-0.01969237797629128
-0.0048255,-0.02002412284293438
-0.00482425,-0.01936063310964848
-0.004823,-0.01936063310964817
-0.004821750000000001,-0.01869714337636227
-0.0048205,-0.01670667417650334
-0.00481925,-0.01604318444321684
-0.004818,-0.01537969470993093
-0.00481675,-0.01537969470993093
-0.0048155,-0.01504794984328783
-0.00481425,-0.01438446011000162
-0.004813,-0.01372097037671571
-0.00481175,-0.0127257357767861
-0.004810500000000001,-0.01106701144357134
-0.00480925,-0.01173050117685679
-0.004808,-0.01073526657692763
-0.00480675,-0.01106701144357058
-0.0048055,-0.009408287110355067
-0.00480425,-0.009408287110355067
-0.004803,-0.008081307643782652
-0.00480175,-0.008081307643782652
-0.0048005,-0.006422583310567134
-0.00479925,-0.005427348710637521
-0.004798,-0.004763858977351616
-0.00479675,-0.005095603843994116
-0.0047955,-0.003768624377422305
-0.00479425,-0.00244164491084989
-0.004793,-0.00244164491084989
-0.00479175,-0.002109900044206787
-0.0047905,-0.001446410310920881
-0.00478925,-0.0004511757109912688
-0.004788,-0.0001194308443478635
-0.00478675,0.0005440588889380419
-0.0047855,0.001539293488867504
-0.00478425,0.001871038355510456
-0.004783,0.003529762688725974
-0.00478175,0.003529762688725974
-0.0047805,0.003861507555369078
-0.004779250000000001,0.004524997288654984
-0.004778,0.005188487021941492
-0.00477675,0.006847211355157463
-0.0047755,0.007842445955086323
-0.00477425,0.008174190821729425
-0.004773,0.008837680555015633
-0.00477175,0.009169425421658736
-0.0047705,0.01049640488823055
-0.00476925,0.01082814975487425
-0.004768000000000001,0.01115989462151721
-0.00476675,0.01215512922144667
-0.0047655,0.01348210868801908
-0.00476425,0.01348210868801908
-0.004763,0.0148090881545915
-0.00476175,0.0154725778878777
-0.0047605,0.0154725778878777
-0.00475925,0.01646781248780656
-0.004758,0.01713130222109322
-0.00475675,0.01812653682102268
-0.0047555,0.01845828168766564
-0.00475425,0.01945351628759495
-0.004753,0.01945351628759495
-0.00475175,0.02078049575416736
-0.0047505,0.02177573035409667
-0.00474925,0.02210747522073978
-0.004748,0.02310270982066864
-0.00474675,0.0240979444205984
-0.0047455,0.02277096495402719
-0.00474425,0.02542492388717081
-0.004743,0.02542492388717172
-0.00474175,0.02741539308702944
-0.0047405,0.02642015848710012
-0.00473925,0.02807888282031489
-0.004738,0.02774713795367254
-0.004736750000000001,0.0287423725536014
-0.0047355,0.02907411742024495
-0.00473425,0.03006935202017411
-0.004733,0.02973760715353116
-0.00473175,0.03073284175346047
-0.0047305,0.03106458662010357
-0.00472925,0.0327233109533191
-0.004728,0.0327233109533191
-0.00472675,0.03405029041989151
-0.004725500000000001,0.03471378015317742
-0.00472425,0.03504552501982082
-0.004723,0.03537726988646407
-0.00472175,0.03570901475310702
-0.0047205,0.03637250448639323
-0.00471925,0.03769948395296564
-0.004718,0.03670424935303633
-0.00471675,0.03703599421967929
-0.0047155,0.03769948395296564
-0.00471425,0.03869471855289525
-0.004713,0.03935820828618117
-0.00471175,0.03968995315282472
-0.0047105,0.04068518775275358
-0.00470925,0.04035344288611048
-0.004708,0.04068518775275358
-0.00470675,0.04068518775275358
-0.0047055,0.04168042235268244
-0.00470425,0.04201216721932599
-0.004703,0.04201216721932629
-0.00470175,0.0426756569526122
-0.0047005,0.0430074018192556
-0.00469925,0.04367089155254152
-0.004698,0.04433438128582771
-0.00469675,0.04433438128582771
-0.0046955,0.04400263641918462
-0.004694250000000001,0.0433391466858987
-0.004693,0.04466612615247083
-0.00469175,0.04566136075239997
-0.0046905,0.04532961588575703
-0.00468925,0.04599310561904324
-0.004688,0.04632485048568634
-0.00468675,0.04532961588575703
-0.0046855,0.0469883402189718
-0.00468425,0.04632485048568634
-0.004683000000000001,0.04566136075240042
-0.00468175,0.04698834021897255
-0.0046805,0.0476518299522586
-0.00467925,0.04732008508561565
-0.004678,0.04732008508561565
-0.00467675,0.04732008508561565
-0.0046755,0.04698834021897255
-0.00467425,0.04798357481890141
-0.004673,0.04765182995225875
-0.00467175,0.04831531968554467
-0.0046705,0.04765182995225875
-0.00466925,0.04864706455218776
-0.004668,0.04798357481890186
-0.00466675,0.04798357481890186
-0.0046655,0.04831531968554496
-0.00466425,0.04831531968554496
-0.004663,0.04798357481890202
-0.00466175,0.04864706455218806
-0.0046605,0.04798357481890186
-0.00465925,0.04798357481890186
-0.004658,0.04831531968554481
-0.00465675,0.04798357481890186
-0.0046555,0.04831531968554496
-0.00465425,0.04798357481890186
-0.004653,0.04765182995225875
-0.004651750000000001,0.04665659535232989
-0.0046505,0.04732008508561565
-0.00464925,0.04798357481890141
-0.004648,0.04698834021897255
-0.00464675,0.04732008508561565
-0.0046455,0.04665659535232944
-0.00464425,0.04698834021897255
-0.004643,0.0473200850856155
-0.00464175,0.04632485048568634
-0.004640500000000001,0.04499787101911453
-0.00463925,0.04566136075240013
-0.004638,0.04532961588575718
-0.00463675,0.04566136075240013
-0.0046355,0.04532961588575703
-0.00463425,0.04466612615247083
-0.004633,0.04433438128582771
-0.00463175,0.04433438128582771
-0.0046305,0.04499787101911393
-0.00462925,0.04367089155254122
-0.004628,0.0430074018192553
-0.00462675,0.0430074018192553
-0.0046255,0.0430074018192553
-0.00462425,0.04201216721932599
-0.004623,0.04101693261939668
-0.00462175,0.04101693261939668
-0.0046205,0.04134867748603964
-0.00461925,0.04134867748603979
-0.004618,0.03968995315282457
-0.00461675,0.04035344288611048
-0.0046155,0.03869471855289495
-0.00461425,0.03869471855289495
-0.004613,0.03869471855289495
-0.00461175,0.03803122881960876
-0.0046105,0.03803122881960876
-0.00460925,0.03736773908632284
-0.004608,0.03637250448639323
-0.00460675,0.03637250448639293
-0.0046055,0.03570901475310702
-0.00460425,0.03537726988646392
-0.004603,0.03438203528653461
-0.00460175,0.03471378015317772
-0.0046005,0.03371854555324886
-0.00459925,0.0327233109533191
-0.004598000000000001,0.0327233109533191
-0.00459675,0.03205982122003288
-0.0045955,0.03106458662010357
-0.00459425,0.03106458662010357
-0.004593,0.03040109688681737
-0.00459175,0.03073284175346047
-0.0045905,0.02874237255360185
-0.00458925,0.02874237255360185
-0.004588,0.02841062768695874
-0.004586750000000001,0.02741539308702989
-0.0045855,0.02675190335374323
-0.00458425,0.02608841362045717
-0.004583,0.02642015848710012
-0.00458175,0.02509317902052771
-0.0045805,0.02509317902052771
-0.00457925,0.0240979444205984
-0.004578,0.02310270982066954
-0.00457675,0.02243922008738288
-0.0045755,0.02177573035409667
-0.00457425,0.02177573035409667
-0.004573,0.02078049575416691
-0.00457175,0.01978526115423805
-0.0045705,0.01879002655430874
-0.00456925,0.01879002655430874
-0.004568,0.01746304708773633
-0.00456675,0.01679955735445042
-0.0045655,0.01646781248780702
-0.00456425,0.01613606762116361
-0.004563,0.0154725778878777
-0.00456175,0.01381385355466234
-0.0045605,0.01414559842130529
-0.00455925,0.01381385355466219
-0.004558,0.01315036382137628
-0.00455675,0.01149163948816046
-0.004555500000000001,0.01115989462151751
-0.00455425,0.01049640488823115
-0.004553,0.009832915154944189
-0.00455175,0.008174190821729425
-0.0045505,0.008174190821729425
-0.00454925,0.007842445955086323
-0.004548,0.006515466488513907
-0.00454675,0.007178956221799812
-0.0045455,0.004856742155298389
-0.004544250000000001,0.004193252422012484
-0.004543,0.003861507555369078
-0.00454175,0.003861507555368625
-0.0045405,0.002866272955439767
-0.00453925,0.001207548622224249
-0.004538,0.001539293488867353
-0.00453675,0.0002123140222949384
-0.0045355,-0.0004511757109909671
-0.00453425,-0.0007829205776343725
-0.004533,-0.001114665444277929
-0.00453175,-0.002109900044206787
-0.0045305,-0.002773389777493748
-0.00452925,-0.004432114110708512
-0.004528,-0.003768624377422305
-0.00452675,-0.005095603843994719
-0.0045255,-0.005759093577280927
-0.00452425,-0.006090838443923879
-0.004523,-0.007086073043853341
-0.00452175,-0.0077495627771397
-0.0045205,-0.008081307643782652
-0.00451925,-0.009076542243712566
-0.004518,-0.01040352171028438
-0.00451675,-0.01073526657692748
-0.0045155,-0.01206224604349929
-0.00451425,-0.012393990910143
-0.004513000000000001,-0.01272573577678595
-0.00451175,-0.01305748064342921
-0.0045105,-0.01372097037671587
-0.00450925,-0.01471620497664472
-0.004508,-0.01537969470993093
-0.00450675,-0.01537969470993093
-0.0045055,-0.01670667417650334
-0.00450425,-0.01803365364307516
-0.004503,-0.01737016390978955
-0.004501750000000001,-0.01869714337636137
-0.0045005,-0.01902888824300507
-0.00449925,-0.01969237797629143
-0.004498,-0.02002412284293438
-0.00449675,-0.0213511023095068
-0.0044955,-0.02068761257622059
-0.00449425,-0.022014592042793
-0.004493,-0.02300982664272186
-0.00449175,-0.02367331637600852
-0.0044905,-0.02433680610929488
-0.00448925,-0.02466855097593783
-0.004488,-0.02500029584258139
-0.00448675,-0.02599553044251025
-0.0044855,-0.02599553044251025
-0.00448425,-0.02599553044251025
-0.004483,-0.02665902017579645
-0.00448175,-0.02798599964236826
-0.0044805,-0.02831774450901197
-0.00447925,-0.02798599964236917
-0.004478,-0.02864948937565508
-0.00447675,-0.02964472397558484
-0.0044755,-0.0306399585755137
-0.00447425,-0.0306399585755137
-0.004473,-0.0313034483087996
-0.00447175,-0.03229868290872921
-0.004470500000000001,-0.03130344830880035
-0.00446925,-0.0313034483087999
-0.004468,-0.03229868290872997
-0.00446675,-0.03395740724194474
-0.0044655,-0.03296217264201542
-0.00446425,-0.03395740724194474
-0.004463,-0.03362566237530162
-0.00446175,-0.03495264184187345
-0.0044605,-0.03462089697523094
-0.004459250000000001,-0.03528438670851685
-0.004458,-0.03561613157516025
-0.00445675,-0.03495264184187435
-0.0044555,-0.03561613157516025
-0.00445425,-0.03661136617508956
-0.004453,-0.03694311104173266
-0.00445175,-0.03661136617508956
-0.0044505,-0.03727485590837547
-0.00444925,-0.03627962130844646
-0.004448,-0.03694311104173281
-0.00444675,-0.03727485590837577
-0.0044455,-0.03793834564166182
-0.00444425,-0.03760660077501887
-0.004443,-0.03760660077501887
-0.00444175,-0.03793834564166197
-0.0044405,-0.03827009050830509
-0.00443925,-0.03793834564166212
-0.004438,-0.03827009050830509
-0.00443675,-0.03827009050830538
-0.0044355,-0.03893358024159128
-0.00443425,-0.03893358024159099
-0.004433,-0.03827009050830509
-0.00443175,-0.0392653251082344
-0.0044305,-0.03893358024159144
-0.00442925,-0.0395970699748775
-0.004428000000000001,-0.03893358024159158
-0.00442675,-0.03827009050830509
-0.0044255,-0.03860183537494834
-0.00442425,-0.03893358024159128
-0.004423,-0.03860183537494818
-0.00442175,-0.03893358024159128
-0.0044205,-0.0392653251082344
-0.00441925,-0.0392653251082344
-0.004418,-0.03827009050830509
-0.004416750000000001,-0.03860183537494803
-0.0044155,-0.03793834564166197
-0.00441425,-0.03793834564166242
-0.004413,-0.03893358024159128
-0.00441175,-0.03860183537494818
-0.0044105,-0.03793834564166197
-0.00440925,-0.03793834564166197
-0.004408,-0.03860183537494789
-0.00440675,-0.03760660077501887
-0.0044055,-0.03793834564166167
-0.00440425,-0.03727485590837577
-0.004403,-0.03661136617508971
-0.00440175,-0.03694311104173266
-0.0044005,-0.03727485590837577
-0.00439925,-0.03694311104173266
-0.004398,-0.03627962130844646
-0.00439675,-0.03627962130844646
-0.0043955,-0.03661136617508956
-0.00439425,-0.03627962130844631
-0.004393,-0.03594787644180336
-0.00439175,-0.03661136617508896
-0.0043905,-0.03528438670851715
-0.00438925,-0.03561613157516025
-0.004388,-0.03462089697523139
-0.00438675,-0.03428915210858784
-0.004385500000000001,-0.03428915210858784
-0.00438425,-0.03362566237530162
-0.004383,-0.03329391750865868
-0.00438175,-0.03362566237530162
-0.0043805,-0.03263042777537233
-0.00437925,-0.03229868290872921
-0.004378,-0.03196693804208611
-0.00437675,-0.03196693804208611
-0.0043755,-0.03163519317544301
-0.004374250000000001,-0.03130344830880005
-0.004373,-0.03030821370887059
-0.00437175,-0.02964472397558453
-0.0043705,-0.02997646884222749
-0.00436925,-0.02931297910894128
-0.004368,-0.02931297910894128
